external_gene_name	go_parent_term	goIndex	runID
Cd24a	ESCbyHAND	1	ESC
Cd59b	ESCbyHAND	1	ESC
Cd59a	ESCbyHAND	1	ESC
Dppa2	ESCbyHAND	1	ESC
Dppa3	ESCbyHAND	1	ESC
Dppa4	ESCbyHAND	1	ESC
Cdh1	ESCbyHAND	1	ESC
Nacc1	ESCbyHAND	1	ESC
Pecam1	ESCbyHAND	1	ESC
Taf8	ESCbyHAND	1	ESC
Cfc1	ESCbyHAND	1	ESC
Itga6	ESCbyHAND	1	ESC
Smad9	ESCbyHAND	1	ESC
Prom1	ESCbyHAND	1	ESC
Fzd5	ESCbyHAND	1	ESC
Epcam	ESCbyHAND	1	ESC
Utf1	ESCbyHAND	1	ESC
Fut4	ESCbyHAND	1	ESC
Zfp42	ESCbyHAND	1	ESC
Nr6a1	ESCbyHAND	1	ESC
Foxd3	ESCbyHAND	1	ESC
Khdc3	ESCbyHAND	1	ESC
Dppa5b	ESCbyHAND	1	ESC
Fbxo15	ESCbyHAND	1	ESC
Klf4	ESCbyHAND	1	ESC
Lef1	ESCbyHAND	1	ESC
Nanog	ESCbyHAND	1	ESC
Pou5f1	ESCbyHAND	1	ESC
Sall4	ESCbyHAND	1	ESC
Smad1	ESCbyHAND	1	ESC
Smad2	ESCbyHAND	1	ESC
Smad4	ESCbyHAND	1	ESC
Smad5	ESCbyHAND	1	ESC
Sox2	ESCbyHAND	1	ESC
Stat3	ESCbyHAND	1	ESC
Tcf3	ESCbyHAND	1	ESC
Zfx	ESCbyHAND	1	ESC
