State (Emission order)	-2000	-1800	-1600	-1400	-1200	-1000	-800	-600	-400	-200	0	200	400	600	800	1000	1200	1400	1600	1800	2000
1	4.74528	4.91009	5.06223	5.18528	5.25165	5.23003	5.09803	4.89667	4.59464	4.28887	3.99952	3.85782	3.90630	4.13301	4.46487	4.75423	5.05179	5.13158	5.16738	5.15097	5.10921
2	0.85164	0.84923	0.83537	0.83176	0.82784	0.82453	0.81639	0.79862	0.77573	0.75132	0.74440	0.73054	0.73325	0.73897	0.77151	0.79139	0.82302	0.83839	0.84893	0.87574	0.88086
3	0.89937	0.83896	0.77097	0.71144	0.65976	0.61538	0.57261	0.53759	0.51130	0.49526	0.49126	0.49304	0.50302	0.51460	0.54312	0.60175	0.69326	0.80590	0.95239	1.12170	1.27033
4	4.40046	5.13680	6.06350	7.29571	8.96146	11.10343	13.84965	17.23535	20.54653	22.95811	24.32377	24.69838	24.31496	23.23178	21.31878	18.60168	15.50795	12.82405	10.48631	8.48185	7.00713
5	0.86613	0.85625	0.84412	0.82338	0.79230	0.75059	0.69701	0.62903	0.56366	0.51773	0.49292	0.48757	0.49361	0.51183	0.54284	0.58893	0.63720	0.67758	0.70499	0.72076	0.72947
